…
#> 1 feat_01  0.300         0.429          11.3            1.24  decision-relevant 
#> 2 feat_05 -0.00551       0.341        1226.             1.24  decision-relevant 
#> 3 feat_02  0.243         0.333          13.3            1.24  decision-relevant 
#> 4 feat_06  0.00130       0.225        2274.             1.24  decision-relevant 
#> 5 feat_03  1.95          0.201           0.302          0.302 prediction-releva…
#> 6 feat_04  1.95          0.125           0.301          0.301 prediction-releva…
glance(fit)
#> # A tibble: 1 × 12
#>    nobs n_instances n_proxy_eligible n_partial_coverage n_features n_selected
#>   <int>       <int>            <int>              <int>      <int>      <int>
#> 1   360          60               60                  0          6          6
#> # ℹ 6 more variables: lambda_min <dbl>, lambda_1se <dbl>, sense <chr>,
#> #   penalty_primary <chr>, source <chr>, seed <int>
augment(fit, sim$x, sim$scenario, element_id_new = sim$element_id)
#> # A tibble: 360 × 8
#>    scenario element_id .decision .chosen .predicted_cost .contribution .feasible
#>    <chr>    <chr>          <dbl> <lgl>             <dbl>         <dbl> <lgl>    
#>  1 scenari… 1                0.5 TRUE              1.35          0.674 TRUE     
#>  2 scenari… 2                0.5 TRUE              1.30          0.650 TRUE     
#>  3 scenari… 3                0   FALSE             1.20          0     TRUE     
#>  4 scenari… 4                0   FALSE             1.08          0     TRUE     
#>  5 scenari… 5                0   FALSE             1.04          0     TRUE     
#>  6 scenari… 6                0   FALSE             0.922         0     TRUE     
#>  7 scenari… 1                0   FALSE            -1.36          0     TRUE     
#>  8 scenari… 2                0   FALSE            -1.37          0     TRUE     
#>  9 scenari… 3                0   FALSE            -1.39          0     TRUE     
#> 10 scenari… 4                0   FALSE            -1.36          0     TRUE     
#> # ℹ 350 more rows
#> # ℹ 1 more variable: .step <int>
```
